%YAML 1.1
%TAG !u! tag:unity3d.com,2011:
--- !u!1 &2889389139992994181
GameObject:
  m_ObjectHideFlags: 0
  m_CorrespondingSourceObject: {fileID: 0}
  m_PrefabInstance: {fileID: 0}
  m_PrefabAsset: {fileID: 0}
  serializedVersion: 6
  m_Component:
  - component: {fileID: 8975589655182387640}
  m_Layer: 0
  m_Name: House1
  m_TagString: Untagged
  m_Icon: {fileID: 0}
  m_NavMeshLayer: 0
  m_StaticEditorFlags: 0
  m_IsActive: 1
--- !u!4 &8975589655182387640
Transform:
  m_ObjectHideFlags: 0
  m_CorrespondingSourceObject: {fileID: 0}
  m_PrefabInstance: {fileID: 0}
  m_PrefabAsset: {fileID: 0}
  m_GameObject: {fileID: 2889389139992994181}
  m_LocalRotation: {x: 0, y: 0, z: 0, w: 1}
  m_LocalPosition: {x: 0, y: 0, z: 0}
  m_LocalScale: {x: 1, y: 1, z: 1}
  m_Children:
  - {fileID: 423672856284800597}
  m_Father: {fileID: 0}
  m_RootOrder: 0
  m_LocalEulerAnglesHint: {x: 0, y: 0, z: 0}
--- !u!1001 &7620562461670836955
PrefabInstance:
  m_ObjectHideFlags: 0
  serializedVersion: 2
  m_Modification:
    m_TransformParent: {fileID: 8975589655182387640}
    m_Modifications:
    - target: {fileID: 6520021222125952669, guid: 4b1afcb91d717c14fae4450b12647e5d,
        type: 3}
      propertyPath: m_Name
      value: house_blender_export
      objectReference: {fileID: 0}
    - target: {fileID: 7791400086709578894, guid: 4b1afcb91d717c14fae4450b12647e5d,
        type: 3}
      propertyPath: m_LocalPosition.x
      value: -1.1
      objectReference: {fileID: 0}
    - target: {fileID: 7791400086709578894, guid: 4b1afcb91d717c14fae4450b12647e5d,
        type: 3}
      propertyPath: m_LocalPosition.y
      value: 0
      objectReference: {fileID: 0}
    - target: {fileID: 7791400086709578894, guid: 4b1afcb91d717c14fae4450b12647e5d,
        type: 3}
      propertyPath: m_LocalPosition.z
      value: 0
      objectReference: {fileID: 0}
    - target: {fileID: 7791400086709578894, guid: 4b1afcb91d717c14fae4450b12647e5d,
        type: 3}
      propertyPath: m_LocalRotation.x
      value: -0
      objectReference: {fileID: 0}
    - target: {fileID: 7791400086709578894, guid: 4b1afcb91d717c14fae4450b12647e5d,
        type: 3}
      propertyPath: m_LocalRotation.y
      value: -0.7071068
      objectReference: {fileID: 0}
    - target: {fileID: 7791400086709578894, guid: 4b1afcb91d717c14fae4450b12647e5d,
        type: 3}
      propertyPath: m_LocalRotation.z
      value: -0
      objectReference: {fileID: 0}
    - target: {fileID: 7791400086709578894, guid: 4b1afcb91d717c14fae4450b12647e5d,
        type: 3}
      propertyPath: m_LocalRotation.w
      value: 0.7071068
      objectReference: {fileID: 0}
    - target: {fileID: 7791400086709578894, guid: 4b1afcb91d717c14fae4450b12647e5d,
        type: 3}
      propertyPath: m_RootOrder
      value: 0
      objectReference: {fileID: 0}
    - target: {fileID: 7791400086709578894, guid: 4b1afcb91d717c14fae4450b12647e5d,
        type: 3}
      propertyPath: m_LocalEulerAnglesHint.x
      value: 0
      objectReference: {fileID: 0}
    - target: {fileID: 7791400086709578894, guid: 4b1afcb91d717c14fae4450b12647e5d,
        type: 3}
      propertyPath: m_LocalEulerAnglesHint.y
      value: -90
      objectReference: {fileID: 0}
    - target: {fileID: 7791400086709578894, guid: 4b1afcb91d717c14fae4450b12647e5d,
        type: 3}
      propertyPath: m_LocalEulerAnglesHint.z
      value: 0
      objectReference: {fileID: 0}
    m_RemovedComponents: []
  m_SourcePrefab: {fileID: 100100000, guid: 4b1afcb91d717c14fae4450b12647e5d, type: 3}
--- !u!4 &423672856284800597 stripped
Transform:
  m_CorrespondingSourceObject: {fileID: 7791400086709578894, guid: 4b1afcb91d717c14fae4450b12647e5d,
    type: 3}
  m_PrefabInstance: {fileID: 7620562461670836955}
  m_PrefabAsset: {fileID: 0}
